Problem Set 2. Experiments | Causal Inference Course
…
sex
category of treatments

f if first name signals female

m if first name signals male

For 2.1–2.4, we will think of race as the treatment. For 2.5–2.6, we will think of firstname as the treatment.

We can print the relevant variables in a table

d_selected <- d %>%
  select(call, firstname, race, sex) %>% print()

## # A tibble: 4,870 × 4
##     call firstname race  sex  
##    <dbl> <chr>     <chr> <chr>
##  1     0 Allison   w     f    
##  2     0 Kristen   w     f    
##  3     0 Lakisha   b     f    
##  4     0 Latonya   b     f    
##  5     0 Carrie    w     f    
##  6     0 Jay       w     m    
##  7     0 Jill      w     f    
##  8     0 Kenya     b     f    
##  9     0 Latonya   b     f    
## 10     0 Tyrone    b     m    
## # ℹ 4,860 more rows
…
